{
    "drinks": [
      {
        "strDrink": "9 1/2 Weeks",
        "strDrinkThumb": "https://www.thecocktaildb.com/images/media/drink/xvwusr1472669302.jpg",
        "idDrink": "16108"
      },
      {
        "strDrink": "A. J.",
        "strDrinkThumb": "https://www.thecocktaildb.com/images/media/drink/uryyrr1472811418.jpg",
        "idDrink": "17833"
      },
      {
        "strDrink": "A1",
        "strDrinkThumb": "https://www.thecocktaildb.com/images/media/drink/2x8thr1504816928.jpg",
        "idDrink": "17222"
      },
      {
        "strDrink": "Abbey Cocktail",
        "strDrinkThumb": "https://www.thecocktaildb.com/images/media/drink/quyyuw1472811568.jpg",
        "idDrink": "17834"
      },
      {
        "strDrink": "Abbey Martini",
        "strDrinkThumb": "https://www.thecocktaildb.com/images/media/drink/2mcozt1504817403.jpg",
        "idDrink": "17223"
      },
      {
        "strDrink": "Absolutely Cranberry Smash",
        "strDrinkThumb": "https://www.thecocktaildb.com/images/media/drink/vqwstv1472811884.jpg",
        "idDrink": "15024"
      },
      {
        "strDrink": "Adam",
        "strDrinkThumb": "https://www.thecocktaildb.com/images/media/drink/rwuxsv1472812169.jpg",
        "idDrink": "17837"
      },
      {
        "strDrink": "Adam & Eve",
        "strDrinkThumb": "https://www.thecocktaildb.com/images/media/drink/vfeumw1504819077.jpg",
        "idDrink": "17226"
      },
      {
        "strDrink": "Addington",
        "strDrinkThumb": "https://www.thecocktaildb.com/images/media/drink/ib0b7g1504818925.jpg",
        "idDrink": "17227"
      },
      {
        "strDrink": "Adonis Cocktail",
        "strDrinkThumb": "https://www.thecocktaildb.com/images/media/drink/xrvruq1472812030.jpg",
        "idDrink": "17838"
      },
      {
        "strDrink": "Affinity",
        "strDrinkThumb": "https://www.thecocktaildb.com/images/media/drink/nwatpb1504817045.jpg",
        "idDrink": "17840"
      },
      {
        "strDrink": "After Dinner Cocktail",
        "strDrinkThumb": "https://www.thecocktaildb.com/images/media/drink/vtytxq1483387578.jpg",
        "idDrink": "11010"
      },
      {
        "strDrink": "After Supper Cocktail",
        "strDrinkThumb": "https://www.thecocktaildb.com/images/media/drink/quyxwu1483387610.jpg",
        "idDrink": "11011"
      },
      {
        "strDrink": "Alaska Cocktail",
        "strDrinkThumb": "https://www.thecocktaildb.com/images/media/drink/wsyryt1483387720.jpg",
        "idDrink": "11013"
      },
      {
        "strDrink": "Alexander",
        "strDrinkThumb": "https://www.thecocktaildb.com/images/media/drink/urystu1478253039.jpg",
        "idDrink": "11014"
      },
      {
        "strDrink": "Alfie Cocktail",
        "strDrinkThumb": "https://www.thecocktaildb.com/images/media/drink/ypxsqy1483387829.jpg",
        "idDrink": "11019"
      },
      {
        "strDrink": "Algonquin",
        "strDrinkThumb": "https://www.thecocktaildb.com/images/media/drink/uwryxx1483387873.jpg",
        "idDrink": "11020"
      },
      {
        "strDrink": "Alice Cocktail",
        "strDrinkThumb": "https://www.thecocktaildb.com/images/media/drink/qyqtpv1468876144.jpg",
        "idDrink": "12562"
      },
      {
        "strDrink": "Allegheny",
        "strDrinkThumb": "https://www.thecocktaildb.com/images/media/drink/uwvyts1483387934.jpg",
        "idDrink": "11021"
      },
      {
        "strDrink": "Allies Cocktail",
        "strDrinkThumb": "https://www.thecocktaildb.com/images/media/drink/qvprvp1483388104.jpg",
        "idDrink": "11022"
      },
      {
        "strDrink": "Almeria",
        "strDrinkThumb": "https://www.thecocktaildb.com/images/media/drink/rwsyyu1483388181.jpg",
        "idDrink": "11023"
      },
      {
        "strDrink": "Almond Joy",
        "strDrinkThumb": "https://www.thecocktaildb.com/images/media/drink/xutuqs1483388296.jpg",
        "idDrink": "11024"
      },
      {
        "strDrink": "Amaretto And Cream",
        "strDrinkThumb": "https://www.thecocktaildb.com/images/media/drink/dj8n0r1504375018.jpg",
        "idDrink": "11025"
      },
      {
        "strDrink": "Amaretto Stinger",
        "strDrinkThumb": "https://www.thecocktaildb.com/images/media/drink/vvop4w1493069934.jpg",
        "idDrink": "11028"
      },
      {
        "strDrink": "Angel Face",
        "strDrinkThumb": "https://www.thecocktaildb.com/images/media/drink/vqpptp1478253178.jpg",
        "idDrink": "11034"
      },
      {
        "strDrink": "Applecar",
        "strDrinkThumb": "https://www.thecocktaildb.com/images/media/drink/sbffau1504389764.jpg",
        "idDrink": "11046"
      },
      {
        "strDrink": "Applejack",
        "strDrinkThumb": "https://www.thecocktaildb.com/images/media/drink/sutyqp1479209062.jpg",
        "idDrink": "16311"
      },
      {
        "strDrink": "Arctic Mouthwash",
        "strDrinkThumb": "https://www.thecocktaildb.com/images/media/drink/wqstwv1478963735.jpg",
        "idDrink": "17118"
      },
      {
        "strDrink": "Army special",
        "strDrinkThumb": "https://www.thecocktaildb.com/images/media/drink/55muhh1493068062.jpg",
        "idDrink": "17066"
      },
      {
        "strDrink": "Artillery",
        "strDrinkThumb": "https://www.thecocktaildb.com/images/media/drink/g1vnbe1493067747.jpg",
        "idDrink": "11055"
      },
      {
        "strDrink": "Aviation",
        "strDrinkThumb": "https://www.thecocktaildb.com/images/media/drink/ruutxt1478253328.jpg",
        "idDrink": "17180"
      },
      {
        "strDrink": "Bacardi Cocktail",
        "strDrinkThumb": "https://www.thecocktaildb.com/images/media/drink/n433t21504348259.jpg",
        "idDrink": "17183"
      },
      {
        "strDrink": "Balmoral",
        "strDrinkThumb": "https://www.thecocktaildb.com/images/media/drink/vysuyq1441206297.jpg",
        "idDrink": "11060"
      },
      {
        "strDrink": "Banana Strawberry Shake Daiquiri-type",
        "strDrinkThumb": "https://www.thecocktaildb.com/images/media/drink/uvypss1472720581.jpg",
        "idDrink": "12658"
      },
      {
        "strDrink": "Bellini Martini",
        "strDrinkThumb": "https://www.thecocktaildb.com/images/media/drink/3h9wv51504389379.jpg",
        "idDrink": "16176"
      },
      {
        "strDrink": "Between The Sheets",
        "strDrinkThumb": "https://www.thecocktaildb.com/images/media/drink/of1rj41504348346.jpg",
        "idDrink": "17184"
      },
      {
        "strDrink": "Bijou",
        "strDrinkThumb": "https://www.thecocktaildb.com/images/media/drink/rysb3r1513706985.jpg",
        "idDrink": "17254"
      },
      {
        "strDrink": "Blackthorn",
        "strDrinkThumb": "https://www.thecocktaildb.com/images/media/drink/xvswvy1441209430.jpg",
        "idDrink": "11106"
      },
      {
        "strDrink": "Blue Margarita",
        "strDrinkThumb": "https://www.thecocktaildb.com/images/media/drink/qtvvyq1439905913.jpg",
        "idDrink": "11118"
      },
      {
        "strDrink": "Bluebird",
        "strDrinkThumb": "https://www.thecocktaildb.com/images/media/drink/vxypsq1441209971.jpg",
        "idDrink": "11120"
      },
      {
        "strDrink": "Bobby Burns Cocktail",
        "strDrinkThumb": "https://www.thecocktaildb.com/images/media/drink/km6se51484411608.jpg",
        "idDrink": "11121"
      },
      {
        "strDrink": "Boomerang",
        "strDrinkThumb": "https://www.thecocktaildb.com/images/media/drink/3m6yz81504389551.jpg",
        "idDrink": "11124"
      },
      {
        "strDrink": "Boston Sidecar",
        "strDrinkThumb": "https://www.thecocktaildb.com/images/media/drink/qzs5d11504365962.jpg",
        "idDrink": "11128"
      },
      {
        "strDrink": "Brandy Alexander",
        "strDrinkThumb": "https://www.thecocktaildb.com/images/media/drink/tvqxvr1483387746.jpg",
        "idDrink": "11016"
      },
      {
        "strDrink": "Casa Blanca",
        "strDrinkThumb": "https://www.thecocktaildb.com/images/media/drink/usspxq1441553762.jpg",
        "idDrink": "11222"
      },
      {
        "strDrink": "Casino",
        "strDrinkThumb": "https://www.thecocktaildb.com/images/media/drink/1mvjxg1504348579.jpg",
        "idDrink": "17185"
      },
      {
        "strDrink": "Cherry Rum",
        "strDrinkThumb": "https://www.thecocktaildb.com/images/media/drink/twsuvr1441554424.jpg",
        "idDrink": "11239"
      },
      {
        "strDrink": "City Slicker",
        "strDrinkThumb": "https://www.thecocktaildb.com/images/media/drink/dazdlg1504366949.jpg",
        "idDrink": "11251"
      },
      {
        "strDrink": "Clove Cocktail",
        "strDrinkThumb": "https://www.thecocktaildb.com/images/media/drink/qxvtst1461867579.jpg",
        "idDrink": "11255"
      },
      {
        "strDrink": "Clover Club",
        "strDrinkThumb": "https://www.thecocktaildb.com/images/media/drink/t0aja61504348715.jpg",
        "idDrink": "17186"
      },
      {
        "strDrink": "Coke and Drops",
        "strDrinkThumb": "https://www.thecocktaildb.com/images/media/drink/yrtxxp1472719367.jpg",
        "idDrink": "17108"
      },
      {
        "strDrink": "Corpse Reviver #2",
        "strDrinkThumb": "https://www.thecocktaildb.com/images/media/drink/gifgao1513704334.jpg",
        "idDrink": "17250"
      },
      {
        "strDrink": "Cosmopolitan",
        "strDrinkThumb": "https://www.thecocktaildb.com/images/media/drink/kpsajh1504368362.jpg",
        "idDrink": "17196"
      },
      {
        "strDrink": "Cosmopolitan Martini",
        "strDrinkThumb": "https://www.thecocktaildb.com/images/media/drink/upxxpq1439907580.jpg",
        "idDrink": "14133"
      },
      {
        "strDrink": "Daiquiri",
        "strDrinkThumb": "https://www.thecocktaildb.com/images/media/drink/usuuur1439906797.jpg",
        "idDrink": "11006"
      },
      {
        "strDrink": "Darkwood Sling",
        "strDrinkThumb": "https://www.thecocktaildb.com/images/media/drink/sxxsyq1472719303.jpg",
        "idDrink": "14482"
      },
      {
        "strDrink": "Derby",
        "strDrinkThumb": "https://www.thecocktaildb.com/images/media/drink/i502ra1504349156.jpg",
        "idDrink": "17187"
      },
      {
        "strDrink": "Dirty Martini",
        "strDrinkThumb": "https://www.thecocktaildb.com/images/media/drink/vcyvpq1485083300.jpg",
        "idDrink": "17181"
      },
      {
        "strDrink": "Dry Martini",
        "strDrinkThumb": "https://www.thecocktaildb.com/images/media/drink/71t8581504353095.jpg",
        "idDrink": "11005"
      },
      {
        "strDrink": "Dry Rob Roy",
        "strDrinkThumb": "https://www.thecocktaildb.com/images/media/drink/typuyq1439456976.jpg",
        "idDrink": "11324"
      },
      {
        "strDrink": "Dubonnet Cocktail",
        "strDrinkThumb": "https://www.thecocktaildb.com/images/media/drink/xxsuwr1439457147.jpg",
        "idDrink": "11326"
      },
      {
        "strDrink": "English Rose Cocktail",
        "strDrinkThumb": "https://www.thecocktaildb.com/images/media/drink/yxwrpp1441208697.jpg",
        "idDrink": "11339"
      },
      {
        "strDrink": "Espresso Martini",
        "strDrinkThumb": "https://www.thecocktaildb.com/images/media/drink/n0sx531504372951.jpg",
        "idDrink": "17212"
      },
      {
        "strDrink": "Flaming Lamborghini",
        "strDrinkThumb": "https://www.thecocktaildb.com/images/media/drink/yywpss1461866587.jpg",
        "idDrink": "16485"
      },
      {
        "strDrink": "Flying Scotchman",
        "strDrinkThumb": "https://www.thecocktaildb.com/images/media/drink/glgrix1504520040.jpg",
        "idDrink": "11369"
      },
      {
        "strDrink": "Foxy Lady",
        "strDrinkThumb": "https://www.thecocktaildb.com/images/media/drink/r9cz3q1504519844.jpg",
        "idDrink": "11375"
      },
      {
        "strDrink": "French Martini",
        "strDrinkThumb": "https://www.thecocktaildb.com/images/media/drink/clth721504373134.jpg",
        "idDrink": "17213"
      },
      {
        "strDrink": "Gagliardo",
        "strDrinkThumb": "https://www.thecocktaildb.com/images/media/drink/lyloe91487602877.jpg",
        "idDrink": "12758"
      },
      {
        "strDrink": "Golden dream",
        "strDrinkThumb": "https://www.thecocktaildb.com/images/media/drink/qrot6j1504369425.jpg",
        "idDrink": "17199"
      },
      {
        "strDrink": "Grasshopper",
        "strDrinkThumb": "https://www.thecocktaildb.com/images/media/drink/aqm9el1504369613.jpg",
        "idDrink": "17200"
      },
      {
        "strDrink": "Havana Cocktail",
        "strDrinkThumb": "https://www.thecocktaildb.com/images/media/drink/59splc1504882899.jpg",
        "idDrink": "11470"
      },
      {
        "strDrink": "Hawaiian Cocktail",
        "strDrinkThumb": "https://www.thecocktaildb.com/images/media/drink/ujoh9x1504882987.jpg",
        "idDrink": "11472"
      },
      {
        "strDrink": "Hemingway Special",
        "strDrinkThumb": "https://www.thecocktaildb.com/images/media/drink/jfcvps1504369888.jpg",
        "idDrink": "17201"
      },
      {
        "strDrink": "Highland Fling Cocktail",
        "strDrinkThumb": "https://www.thecocktaildb.com/images/media/drink/0bkwca1492975553.jpg",
        "idDrink": "11476"
      },
      {
        "strDrink": "Imperial Cocktail",
        "strDrinkThumb": "https://www.thecocktaildb.com/images/media/drink/bcsj2e1487603625.jpg",
        "idDrink": "12706"
      },
      {
        "strDrink": "Jack Rose Cocktail",
        "strDrinkThumb": "https://www.thecocktaildb.com/images/media/drink/uuqqrv1439907068.jpg",
        "idDrink": "11542"
      },
      {
        "strDrink": "Jewel Of The Nile",
        "strDrinkThumb": "https://www.thecocktaildb.com/images/media/drink/hx4nrb1504884947.jpg",
        "idDrink": "11566"
      },
      {
        "strDrink": "Jitterbug",
        "strDrinkThumb": "https://www.thecocktaildb.com/images/media/drink/wwqvrq1441245318.jpg",
        "idDrink": "16178"
      },
      {
        "strDrink": "Kamikaze",
        "strDrinkThumb": "https://www.thecocktaildb.com/images/media/drink/xa58bb1504373204.jpg",
        "idDrink": "11600"
      },
      {
        "strDrink": "Kentucky Colonel",
        "strDrinkThumb": "https://www.thecocktaildb.com/images/media/drink/utqwpu1478820348.jpg",
        "idDrink": "11604"
      },
      {
        "strDrink": "Lady Love Fizz",
        "strDrinkThumb": "https://www.thecocktaildb.com/images/media/drink/20d63k1504885263.jpg",
        "idDrink": "11634"
      },
      {
        "strDrink": "Lemon Drop",
        "strDrinkThumb": "https://www.thecocktaildb.com/images/media/drink/mtpxgk1504373297.jpg",
        "idDrink": "14366"
      },
      {
        "strDrink": "Loch Lomond",
        "strDrinkThumb": "https://www.thecocktaildb.com/images/media/drink/rpvtpr1468923881.jpg",
        "idDrink": "11658"
      },
      {
        "strDrink": "London Town",
        "strDrinkThumb": "https://www.thecocktaildb.com/images/media/drink/rpsrqv1468923507.jpg",
        "idDrink": "11662"
      },
      {
        "strDrink": "Lone Tree Cocktail",
        "strDrinkThumb": "https://www.thecocktaildb.com/images/media/drink/tsxpty1468923417.jpg",
        "idDrink": "11664"
      },
      {
        "strDrink": "Manhattan",
        "strDrinkThumb": "https://www.thecocktaildb.com/images/media/drink/ec2jtz1504350429.jpg",
        "idDrink": "11008"
      },
      {
        "strDrink": "Margarita",
        "strDrinkThumb": "https://www.thecocktaildb.com/images/media/drink/wpxpvu1439905379.jpg",
        "idDrink": "11007"
      },
      {
        "strDrink": "Martinez 2",
        "strDrinkThumb": "https://www.thecocktaildb.com/images/media/drink/fs6kiq1513708455.jpg",
        "idDrink": "17256"
      },
      {
        "strDrink": "Martinez Cocktail",
        "strDrinkThumb": "https://www.thecocktaildb.com/images/media/drink/wwxwvr1439906452.jpg",
        "idDrink": "11720"
      },
      {
        "strDrink": "Martini",
        "strDrinkThumb": "https://www.thecocktaildb.com/images/media/drink/71t8581504353095.jpg",
        "idDrink": "11728"
      },
      {
        "strDrink": "Mary Pickford",
        "strDrinkThumb": "https://www.thecocktaildb.com/images/media/drink/f9erqb1504350557.jpg",
        "idDrink": "17188"
      },
      {
        "strDrink": "Miami Vice",
        "strDrinkThumb": "https://www.thecocktaildb.com/images/media/drink/qvuyqw1441208955.jpg",
        "idDrink": "13936"
      },
      {
        "strDrink": "Midnight Cowboy",
        "strDrinkThumb": "https://www.thecocktaildb.com/images/media/drink/vsxxwy1441208133.jpg",
        "idDrink": "11766"
      },
      {
        "strDrink": "Midnight Mint",
        "strDrinkThumb": "https://www.thecocktaildb.com/images/media/drink/svuvrq1441208310.jpg",
        "idDrink": "14842"
      },
      {
        "strDrink": "Monkey Gland",
        "strDrinkThumb": "https://www.thecocktaildb.com/images/media/drink/94psp81504350690.jpg",
        "idDrink": "17189"
      },
      {
        "strDrink": "New York Lemonade",
        "strDrinkThumb": "https://www.thecocktaildb.com/images/media/drink/b3n0ge1503565473.jpg",
        "idDrink": "13204"
      },
      {
        "strDrink": "Orgasm",
        "strDrinkThumb": "https://www.thecocktaildb.com/images/media/drink/vr6kle1504886114.jpg",
        "idDrink": "11872"
      },
      {
        "strDrink": "Paradise",
        "strDrinkThumb": "https://www.thecocktaildb.com/images/media/drink/ejozd71504351060.jpg",
        "idDrink": "17190"
      },
      {
        "strDrink": "Pegu Club",
        "strDrinkThumb": "https://www.thecocktaildb.com/images/media/drink/jfkemm1513703902.jpg",
        "idDrink": "17249"
      },
      {
        "strDrink": "Pink Lady",
        "strDrinkThumb": "https://www.thecocktaildb.com/images/media/drink/5ia6j21504887829.jpg",
        "idDrink": "11938"
      },
      {
        "strDrink": "Pisco Sour",
        "strDrinkThumb": "https://www.thecocktaildb.com/images/media/drink/tsssur1439907622.jpg",
        "idDrink": "13214"
      },
      {
        "strDrink": "Poppy Cocktail",
        "strDrinkThumb": "https://www.thecocktaildb.com/images/media/drink/cslw1w1504389915.jpg",
        "idDrink": "11959"
      },
      {
        "strDrink": "Port Wine Cocktail",
        "strDrinkThumb": "https://www.thecocktaildb.com/images/media/drink/qruprq1441553976.jpg",
        "idDrink": "11963"
      },
      {
        "strDrink": "Porto flip",
        "strDrinkThumb": "https://www.thecocktaildb.com/images/media/drink/64x5j41504351518.jpg",
        "idDrink": "17192"
      },
      {
        "strDrink": "Quaker's Cocktail",
        "strDrinkThumb": "https://www.thecocktaildb.com/images/media/drink/yrqppx1478962314.jpg",
        "idDrink": "11983"
      },
      {
        "strDrink": "Quarter Deck Cocktail",
        "strDrinkThumb": "https://www.thecocktaildb.com/images/media/drink/qrwvps1478963017.jpg",
        "idDrink": "11985"
      },
      {
        "strDrink": "Queen Bee",
        "strDrinkThumb": "https://www.thecocktaildb.com/images/media/drink/rvvpxu1478963194.jpg",
        "idDrink": "11987"
      },
      {
        "strDrink": "Queen Elizabeth",
        "strDrinkThumb": "https://www.thecocktaildb.com/images/media/drink/vpqspv1478963339.jpg",
        "idDrink": "11991"
      },
      {
        "strDrink": "Quentin",
        "strDrinkThumb": "https://www.thecocktaildb.com/images/media/drink/spxtqp1478963398.jpg",
        "idDrink": "11993"
      },
      {
        "strDrink": "Rose",
        "strDrinkThumb": "https://www.thecocktaildb.com/images/media/drink/8kxbvq1504371462.jpg",
        "idDrink": "17208"
      },
      {
        "strDrink": "Rum Runner",
        "strDrinkThumb": "https://www.thecocktaildb.com/images/media/drink/vqws6t1504888857.jpg",
        "idDrink": "16250"
      },
      {
        "strDrink": "Salted Toffee Martini",
        "strDrinkThumb": "https://www.thecocktaildb.com/images/media/drink/3s6mlr1509551211.jpg",
        "idDrink": "17233"
      },
      {
        "strDrink": "Scooter",
        "strDrinkThumb": "https://www.thecocktaildb.com/images/media/drink/twuptu1483388307.jpg",
        "idDrink": "12130"
      },
      {
        "strDrink": "Screaming Orgasm",
        "strDrinkThumb": "https://www.thecocktaildb.com/images/media/drink/x894cs1504388670.jpg",
        "idDrink": "13625"
      },
      {
        "strDrink": "Shanghai Cocktail",
        "strDrinkThumb": "https://www.thecocktaildb.com/images/media/drink/ttyrxr1478820678.jpg",
        "idDrink": "12186"
      },
      {
        "strDrink": "Sidecar",
        "strDrinkThumb": "https://www.thecocktaildb.com/images/media/drink/stwxuq1439906852.jpg",
        "idDrink": "12196"
      },
      {
        "strDrink": "Sidecar Cocktail",
        "strDrinkThumb": "https://www.thecocktaildb.com/images/media/drink/ewjxui1504820428.jpg",
        "idDrink": "12198"
      },
      {
        "strDrink": "Sloe Gin Cocktail",
        "strDrinkThumb": "https://www.thecocktaildb.com/images/media/drink/d7mo481504889531.jpg",
        "idDrink": "12224"
      },
      {
        "strDrink": "Stinger",
        "strDrinkThumb": "https://www.thecocktaildb.com/images/media/drink/2ahv791504352433.jpg",
        "idDrink": "17193"
      },
      {
        "strDrink": "Strawberry Daiquiri",
        "strDrinkThumb": "https://www.thecocktaildb.com/images/media/drink/deu59m1504736135.jpg",
        "idDrink": "12316"
      },
      {
        "strDrink": "Strawberry Margarita",
        "strDrinkThumb": "https://www.thecocktaildb.com/images/media/drink/tqyrpw1439905311.jpg",
        "idDrink": "12322"
      },
      {
        "strDrink": "The Last Word",
        "strDrinkThumb": "https://www.thecocktaildb.com/images/media/drink/91oule1513702624.jpg",
        "idDrink": "17247"
      },
      {
        "strDrink": "Thriller",
        "strDrinkThumb": "https://www.thecocktaildb.com/images/media/drink/rvuswq1461867714.jpg",
        "idDrink": "12388"
      },
      {
        "strDrink": "Turf Cocktail",
        "strDrinkThumb": "https://www.thecocktaildb.com/images/media/drink/utypqq1441554367.jpg",
        "idDrink": "12418"
      },
      {
        "strDrink": "Tuxedo Cocktail",
        "strDrinkThumb": "https://www.thecocktaildb.com/images/media/drink/4u0nbl1504352551.jpg",
        "idDrink": "12420"
      },
      {
        "strDrink": "Valencia Cocktail",
        "strDrinkThumb": "https://www.thecocktaildb.com/images/media/drink/9myuc11492975640.jpg",
        "idDrink": "12434"
      },
      {
        "strDrink": "Vesper",
        "strDrinkThumb": "https://www.thecocktaildb.com/images/media/drink/mtdxpa1504374514.jpg",
        "idDrink": "17218"
      },
      {
        "strDrink": "Victor",
        "strDrinkThumb": "https://www.thecocktaildb.com/images/media/drink/voapgc1492976416.jpg",
        "idDrink": "12450"
      },
      {
        "strDrink": "Vodka Martini",
        "strDrinkThumb": "https://www.thecocktaildb.com/images/media/drink/qyxrqw1439906528.jpg",
        "idDrink": "14167"
      },
      {
        "strDrink": "Waikiki Beachcomber",
        "strDrinkThumb": "https://www.thecocktaildb.com/images/media/drink/ysuqus1441208583.jpg",
        "idDrink": "12474"
      },
      {
        "strDrink": "White Lady",
        "strDrinkThumb": "https://www.thecocktaildb.com/images/media/drink/jofsaz1504352991.jpg",
        "idDrink": "17194"
      },
      {
        "strDrink": "Yellow Bird",
        "strDrinkThumb": "https://www.thecocktaildb.com/images/media/drink/2t9r6w1504374811.jpg",
        "idDrink": "17219"
      },
      {
        "strDrink": "Zorbatini",
        "strDrinkThumb": "https://www.thecocktaildb.com/images/media/drink/wtkqgb1485621155.jpg",
        "idDrink": "16963"
      }
    ]
  }